…
``` r
tdf = tibble(x = 1:1e4, y = rnorm(1e4))  # == data_frame(x = 1:1e4, y = rnorm(1e4))
class(tdf)
```

    ## [1] "tbl_df"     "tbl"        "data.frame"

Tibbles print politely.

``` r
tdf
```

    ## # A tibble: 10,000 × 2
    ##        x          y
    ##    <int>      <dbl>
    ## 1      1 -0.3925671
    ## 2      2  0.1703861
    ## 3      3  0.4583199
    ## 4      4 -1.2424335
    ## 5      5 -1.1806229
    ## 6      6  0.2770036
    ## 7      7 -1.1615956
    ## 8      8  1.1410134
    ## 9      9  0.0126514
    ## 10    10  0.1164728
    ## # ... with 9,990 more rows
…
`tidyr`
-------

Latest generation of `reshape`. `gather` to make wide table long, `spread` to make long tables wide.

``` r
who  # Tuberculosis data from the WHO
```

    ## # A tibble: 7,240 × 60
    ##        country  iso2  iso3  year new_sp_m014 new_sp_m1524 new_sp_m2534
    ##          <chr> <chr> <chr> <int>       <int>        <int>        <int>
    ## 1  Afghanistan    AF   AFG  1980          NA           NA           NA
    ## 2  Afghanistan    AF   AFG  1981          NA           NA           NA
    ## 3  Afghanistan    AF   AFG  1982          NA           NA           NA
    ## 4  Afghanistan    AF   AFG  1983          NA           NA           NA
    ## 5  Afghanistan    AF   AFG  1984          NA           NA           NA
    ## 6  Afghanistan    AF   AFG  1985          NA           NA           NA
    ## 7  Afghanistan    AF   AFG  1986          NA           NA           NA
    ## 8  Afghanistan    AF   AFG  1987          NA           NA           NA
    ## 9  Afghanistan    AF   AFG  1988          NA           NA           NA
    ## 10 Afghanistan    AF   AFG  1989          NA           NA           NA
    ## # ... with 7,230 more rows, and 53 more variables: new_sp_m3544 <int>,
    ## #   new_sp_m4554 <int>, new_sp_m5564 <int>, new_sp_m65 <int>,
    ## #   new_sp_f014 <int>, new_sp_f1524 <int>, new_sp_f2534 <int>,
    ## #   new_sp_f3544 <int>, new_sp_f4554 <int>, new_sp_f5564 <int>,
    ## #   new_sp_f65 <int>, new_sn_m014 <int>, new_sn_m1524 <int>,
    ## #   new_sn_m2534 <int>, new_sn_m3544 <int>, new_sn_m4554 <int>,
    ## #   new_sn_m5564 <int>, new_sn_m65 <int>, new_sn_f014 <int>,
    ## #   new_sn_f1524 <int>, new_sn_f2534 <int>, new_sn_f3544 <int>,
    ## #   new_sn_f4554 <int>, new_sn_f5564 <int>, new_sn_f65 <int>,
…
``` r
who %>%
  gather(group, cases, -country, -iso2, -iso3, -year)
```

    ## # A tibble: 405,440 × 6
    ##        country  iso2  iso3  year       group cases
    ##          <chr> <chr> <chr> <int>       <chr> <int>
    ## 1  Afghanistan    AF   AFG  1980 new_sp_m014    NA
    ## 2  Afghanistan    AF   AFG  1981 new_sp_m014    NA
    ## 3  Afghanistan    AF   AFG  1982 new_sp_m014    NA
    ## 4  Afghanistan    AF   AFG  1983 new_sp_m014    NA
    ## 5  Afghanistan    AF   AFG  1984 new_sp_m014    NA
    ## 6  Afghanistan    AF   AFG  1985 new_sp_m014    NA
    ## 7  Afghanistan    AF   AFG  1986 new_sp_m014    NA
    ## 8  Afghanistan    AF   AFG  1987 new_sp_m014    NA
    ## 9  Afghanistan    AF   AFG  1988 new_sp_m014    NA
    ## 10 Afghanistan    AF   AFG  1989 new_sp_m014    NA
    ## # ... with 405,430 more rows
…
``` r
train = sample(nrow(diamonds), floor(nrow(diamonds) * .67))
setdiff(names(diamonds), "price") %>%
  combn(2, paste, collapse = " + ") %>%
  structure(., names = .) %>%
  map(~ formula(paste("price ~ ", .x))) %>%
  map(lm, data = diamonds[train, ]) %>%
  map_df(augment, newdata = diamonds[-train, ], .id = "predictors") %>%
  group_by(predictors) %>%
  summarize(rmse = sqrt(mean((price - .fitted)^2))) %>%
  arrange(rmse)
```

    ## # A tibble: 36 × 2
    ##         predictors     rmse
    ##              <chr>    <dbl>
    ## 1  carat + clarity 1283.460
    ## 2    carat + color 1455.831
    ## 3      carat + cut 1497.130
    ## 4        carat + x 1515.694
    ## 5        carat + y 1525.305
    ## 6    carat + table 1525.514
    ## 7    carat + depth 1528.071
    ## 8        carat + z 1551.428
    ## 9      clarity + x 1658.299
    ## 10     clarity + y 1668.496
    ## # ... with 26 more rows
…
